{
    "entities": [
        {
            "id": 21,
            "name": "About You",
            "slug": "aboutyou",
            "group": "default",
            "isActive": true,
            "logoHash": "01dfae6e5d4d90d9892622325959afbe",
            "createdAt": "2019-04-17 16:05:36",
            "updatedAt": "2019-04-17 16:05:36"
        },
        {
            "id": 22,
            "name": "Edited",
            "slug": "edited",
            "group": "default",
            "externalReference": "0815",
            "isActive": true,
            "logoHash": "8743b52063cd84097a65d1633f5c74f5",
            "createdAt": "2019-04-17 16:05:36",
            "updatedAt": "2019-04-17 16:05:36"
        }
    ],
    "pagination": {
        "current": 2,
        "first": 1,
        "last": 49,
        "next": 2,
        "page": 1,
        "perPage": 2,
        "prev": 1,
        "total": 4879
    }
}